<?xml version="1.0" encoding="utf-8"?>
<svg xmlns="http://www.w3.org/2000/svg" width="900" height="1000" version="1.1">
    

    <line x1="5" y1="100" x2="850" y2="100" style="stroke:rgb(0,0,0);stroke-width:2" />
    <line x1="5" y1="45" x2="5" y2="350" style="stroke:rgb(0,0,0);stroke-width:2" />
    <line x1="5" y1="350" x2="355" y2="350" style="stroke:rgb(0,0,0);stroke-width:2" />
    <line x1="355" y1="350" x2="355" y2="300" style="stroke:rgb(0,0,0);stroke-width:2" />
    <line x1="750" y1="100" x2="750" y2="135" style="stroke:rgb(0,0,0);stroke-width:2" />
    <line x1="790" y1="135" x2="850" y2="135" style="stroke:rgb(0,0,0);stroke-width:2" />
    <line x1="900" y1="45" x2="900" y2="300" style="stroke:rgb(0,0,0);stroke-width:2" />
    
    <line x1="700" y1="300" x2="650" y2="170" style="stroke:rgb(0,0,0);stroke-width:2" />
    <line x1="650" y1="170" x2="500" y2="170" style="stroke:rgb(0,0,0);stroke-width:2" />
    <line x1="500" y1="170" x2="355" y2="300" style="stroke:rgb(0,0,0);stroke-width:2" />
    <line x1="900" y1="300" x2="700" y2="300" style="stroke:rgb(0,0,0);stroke-width:2" />
    
    <!-- elevator and stairs-->
    <rect x="100" y="150" width="200" height="140" style="fill:rgb(255,255,255);stroke:rgb(0,0,0);stroke-width:2"/>
    <!--G407-->
    <rect x="850" y="45" width="50" height="90" style="fill:rgb(255,255,255);stroke:rgb(0,0,0);stroke-width:2"/>
    <circle id="G407" cx="875" cy="115" r="3" style="fill:rgb(255,255,255);stroke:rgb(255,0,0);stroke-width:3" />
    <!--G406-->
    <rect x="750" y="45" width="100" height="55" style="fill:rgb(255,255,255);stroke:rgb(0,0,0);stroke-width:2"/>
    <circle id="G406" cx="770" cy="80" r="3" style="fill:rgb(255,255,255);stroke:rgb(255,0,0);stroke-width:3" />
    <circle id="G406_G407_coridor" cx="770" cy="115" r="3" style="fill:rgb(255,255,255);stroke:rgb(255,0,0);stroke-width:3" />

    <circle id="G4_1" cx="770" cy="150" r="3" style="fill:rgb(255,255,255);stroke:rgb(255,0,0);stroke-width:3" />
    <circle id="G4_2" cx="770" cy="200" r="3" style="fill:rgb(255,255,255);stroke:rgb(255,0,0);stroke-width:3" />
    <circle id="G4_3" cx="700" cy="200" r="3" style="fill:rgb(255,255,255);stroke:rgb(255,0,0);stroke-width:3" />
    <circle id="G4_4" cx="315" cy="125" r="3" style="fill:rgb(255,255,255);stroke:rgb(255,0,0);stroke-width:3" />
    <circle id="G4_5" cx="315" cy="325" r="3" style="fill:rgb(255,255,255);stroke:rgb(255,0,0);stroke-width:3" />
    
    <!--G4_stairs_back-->
    <rect x="850" y="200" width="50" height="100" style="fill:rgb(255,255,255);stroke:rgb(0,0,0);stroke-width:2"/>
    <circle id="G4_stairs_back" cx="875" cy="250" r="3" style="fill:rgb(255,255,255);stroke:rgb(255,0,0);stroke-width:3" />

    <!--G404-->
    <rect x="650" y="45" width="100" height="55" style="fill:rgb(255,255,255);stroke:rgb(0,0,0);stroke-width:2"/>
    <circle id="G404" cx="700" cy="80" r="3" style="fill:rgb(255,255,255);stroke:rgb(255,0,0);stroke-width:3" />
    <circle id="G404_coridor" cx="700" cy="150" r="3" style="fill:rgb(255,255,255);stroke:rgb(255,0,0);stroke-width:3" />

    <!--G402-->
    <rect x="400" y="45" width="100" height="55" style="fill:rgb(255,255,255);stroke:rgb(0,0,0);stroke-width:2"/>
    <circle id="G402" cx="450" cy="80" r="3" style="fill:rgb(255,255,255);stroke:rgb(255,0,0);stroke-width:3" />
    <circle id="G402_coridor" cx="450" cy="150" r="3" style="fill:rgb(255,255,255);stroke:rgb(255,0,0);stroke-width:3" />

    <!--G4_elevator-->
    <rect x="250" y="180" width="50" height="85" style="fill:rgb(255,255,255);stroke:rgb(0,0,0);stroke-width:2"/>
    <circle id="G4_elevator" cx="275" cy="222.5" r="3" style="fill:rgb(255,255,255);stroke:rgb(255,0,0);stroke-width:3" />
    <circle id="G4_elevator_coridor" cx="315" cy="222.5" r="3" style="fill:rgb(255,255,255);stroke:rgb(255,0,0);stroke-width:3" />

    <!--G401-->
    <rect x="5" y="45" width="100" height="55" style="fill:rgb(255,255,255);stroke:rgb(0,0,0);stroke-width:2"/>
    <circle id="G401" cx="30" cy="80" r="3" style="fill:rgb(255,255,255);stroke:rgb(255,0,0);stroke-width:3" />
    <circle id="G401_coridor" cx="30" cy="125" r="3" style="fill:rgb(255,255,255);stroke:rgb(255,0,0);stroke-width:3" />

    <circle id="G4_stairs_coridor_1" cx="150" cy="125" r="3" style="fill:rgb(255,255,255);stroke:rgb(255,0,0);stroke-width:3" />
    <circle id="G4_stairs_1" cx="150" cy="175" r="3" style="fill:rgb(255,255,255);stroke:rgb(255,0,0);stroke-width:3" />

    <!--G4_FW-->
    <rect x="5" y="150" width="50" height="100" style="fill:rgb(255,255,255);stroke:rgb(0,0,0);stroke-width:2"/>
    <circle id="G4_FW" cx="45" cy="225" r="3" style="fill:rgb(255,255,255);stroke:rgb(255,0,0);stroke-width:3" />
    <circle id="G4_stairs_coridor_3" cx="77.5" cy="225" r="3" style="fill:rgb(255,255,255);stroke:rgb(255,0,0);stroke-width:3" />

    <!--G412-->
    <rect x="55" y="150" width="45" height="50" style="fill:rgb(255,255,255);stroke:rgb(0,0,0);stroke-width:2"/>
    <circle id="G412" cx="77.5" cy="175" r="3" style="fill:rgb(255,255,255);stroke:rgb(255,0,0);stroke-width:3" />

    <circle id="G4_stairs_3" cx="120" cy="225" r="3" style="fill:rgb(255,255,255);stroke:rgb(255,0,0);stroke-width:3" />
    <circle id="G4_6" cx="77.5" cy="325" r="3" style="fill:rgb(255,255,255);stroke:rgb(255,0,0);stroke-width:3" />
    <!--G4_stairs_2-->
    <circle id="G4_stairs_2" cx="225" cy="275" r="3" style="fill:rgb(255,255,255);stroke:rgb(255,0,0);stroke-width:3" />
    <circle id="G4_stairs_coridor_2" cx="225" cy="325" r="3" style="fill:rgb(255,255,255);stroke:rgb(255,0,0);stroke-width:3" />
</svg>