<?xml version="1.0" encoding="utf-8"?>
<svg xmlns="http://www.w3.org/2000/svg" width="900" height="1000" version="1.1">
    
    <!-- 
    
    G1 started

    -->


    <line x1="310" y1="620" x2="480" y2="620" style="stroke:rgb(0,0,0);stroke-width:2" />
    <line x1="310" y1="669" x2="310" y2="663" style="stroke:rgb(0,0,0);stroke-width:2" />
    <line x1="301" y1="663" x2="310" y2="663" style="stroke:rgb(0,0,0);stroke-width:2" />
    <line x1="301" y1="670" x2="380" y2="670" style="stroke:rgb(0,0,0);stroke-width:2" />
    <line x1="380" y1="670" x2="380" y2="654" style="stroke:rgb(0,0,0);stroke-width:2" />
    <line x1="480" y1="620" x2="480" y2="660" style="stroke:rgb(0,0,0);stroke-width:2" />
    
    <line x1="440" y1="660" x2="430" y2="644" style="stroke:rgb(0,0,0);stroke-width:2" />
    <line x1="430" y1="645" x2="380" y2="644" style="stroke:rgb(0,0,0);stroke-width:2" />
    <line x1="400" y1="654" x2="380" y2="654" style="stroke:rgb(0,0,0);stroke-width:2" />
    <line x1="480" y1="660" x2="440" y2="660" style="stroke:rgb(0,0,0);stroke-width:2" />
    
    <!-- elevator and stairs-->
    <rect x="320" y="630" width="30" height="25" style="fill:rgb(255,255,255);stroke:rgb(0,0,0);stroke-width:2"/>
    <!--G104-->
    <rect x="430" y="609" width="20" height="11" style="fill:rgb(255,255,255);stroke:rgb(0,0,0);stroke-width:2"/>
    <circle id="G104" cx="440" cy="616" r="0.6" style="fill:rgb(255,255,255);stroke:rgb(255,0,0);stroke-width:3" />
    <circle id="G104_corridor" cx="440" cy="635" r="0.6" style="fill:rgb(255,255,255);stroke:rgb(255,0,0);stroke-width:3" />

    <circle id="G1_2" cx="375" cy="645" r="0.6" style="fill:rgb(255,255,255);stroke:rgb(255,0,0);stroke-width:3" />
    <circle id="G1_1" cx="375" cy="635" r="0.6" style="fill:rgb(255,255,255);stroke:rgb(255,0,0);stroke-width:3" />
    
    <!--G1_stairs_back-->
    <rect x="470" y="640" width="10" height="20" style="fill:rgb(255,255,255);stroke:rgb(0,0,0);stroke-width:2"/>
    <circle id="G1_stairs_back" cx="471" cy="650" r="0.6" style="fill:rgb(255,255,255);stroke:rgb(255,0,0);stroke-width:3" />
    
    <!--G1_elevator-->
    <rect x="340" y="636" width="10" height="13.5" style="fill:rgb(255,255,255);stroke:rgb(0,0,0);stroke-width:2"/>
    <circle id="G1_elevator_coridor" cx="355" cy="644" r="0.6" style="fill:rgb(255,255,255);stroke:rgb(255,0,0);stroke-width:3" />
    <circle id="G1_elevator" cx="345" cy="644" r="0.6" style="fill:rgb(255,255,255);stroke:rgb(255,0,0);stroke-width:3" />

    <!--G101-->
    <rect x="310" y="609" width="25" height="11" style="fill:rgb(255,255,255);stroke:rgb(0,0,0);stroke-width:2"/>
    <circle id="G101" cx="323" cy="616" r="0.6" style="fill:rgb(255,255,255);stroke:rgb(255,0,0);stroke-width:3" />
    <circle id="G101_coridor" cx="323" cy="625" r="0.6" style="fill:rgb(255,255,255);stroke:rgb(255,0,0);stroke-width:3" />



    <!--G102-->
    <rect x="335" y="609" width="25" height="11" style="fill:rgb(255,255,255);stroke:rgb(0,0,0);stroke-width:2"/>
    <circle id="G102" cx="355" cy="616" r="0.6" style="fill:rgb(255,255,255);stroke:rgb(255,0,0);stroke-width:3" />
    <circle id="G102_coridor" cx="355" cy="625" r="0.6" style="fill:rgb(255,255,255);stroke:rgb(255,0,0);stroke-width:3" />

    <!--G103-->
    <rect x="360" y="609" width="25" height="11" style="fill:rgb(255,255,255);stroke:rgb(0,0,0);stroke-width:2"/>
    <circle id="G103" cx="375" cy="616" r="0.6" style="fill:rgb(255,255,255);stroke:rgb(255,0,0);stroke-width:3" />
    <circle id="G103_corridor" cx="375" cy="625" r="0.6" style="fill:rgb(255,255,255);stroke:rgb(255,0,0);stroke-width:3" />

    <circle id="G1_stairs_1" cx="335" cy="635" r="0.6" style="fill:rgb(255,255,255);stroke:rgb(255,0,0);stroke-width:3" />
    <circle id="G1_stairs_corridor_1" cx="335" cy="625" r="0.6" style="fill:rgb(255,255,255);stroke:rgb(255,0,0);stroke-width:3" />
    <circle id="G1_3" cx="355" cy="650" r="0.6" style="fill:rgb(255,255,255);stroke:rgb(255,0,0);stroke-width:3" />
    <circle id="G1_4" cx="355" cy="665" r="0.6" style="fill:rgb(255,255,255);stroke:rgb(255,0,0);stroke-width:3" />
    <circle id="G1_5" cx="315.5" cy="665" r="0.6" style="fill:rgb(255,255,255);stroke:rgb(255,0,0);stroke-width:3" />
    <circle id="G1_exit" cx="304" cy="665" r="0.6" style="fill:rgb(255,255,255);stroke:rgb(255,0,0);stroke-width:3" />
    
    <circle id="G1_stairs_corridor_4" cx="375" cy="650" r="0.6" style="fill:rgb(255,255,255);stroke:rgb(255,0,0);stroke-width:3" />
    

    <!--G1_MW-->
    <rect x="301" y="640" width="9" height="10" style="fill:rgb(255,255,255);stroke:rgb(0,0,0);stroke-width:2"/>
    <circle id="G1_MW" cx="308" cy="645" r="0.6" style="fill:rgb(255,255,255);stroke:rgb(255,0,0);stroke-width:3" />
    <!--G112-->
    <rect x="310" y="630" width="10" height="10" style="fill:rgb(255,255,255);stroke:rgb(0,0,0);stroke-width:2"/>
    <circle id="G112" cx="315.5" cy="635" r="0.6" style="fill:rgb(255,255,255);stroke:rgb(255,0,0);stroke-width:3" />
    <circle id="G112_corridor" cx="315.5" cy="645" r="0.6" style="fill:rgb(255,255,255);stroke:rgb(255,0,0);stroke-width:3" />
    
    <!--G1_stairs_2-->
    <circle id="G1_stairs_2" cx="335" cy="650" r="0.6" style="fill:rgb(255,255,255);stroke:rgb(255,0,0);stroke-width:3" />
    <circle id="G1_stairs_coridor_2" cx="335" cy="665" r="0.6" style="fill:rgb(255,255,255);stroke:rgb(255,0,0);stroke-width:3" />
    <!--
    
    G1 ended
    
    -->
    <!--
    
    
    G2 starts
    
    -->
    <line x1="410" y1="520" x2="570" y2="520" style="stroke:rgb(0,0,0);stroke-width:2" />
    <line x1="410" y1="509" x2="410" y2="563" style="stroke:rgb(0,0,0);stroke-width:2" />
    <line x1="401" y1="563" x2="410" y2="563" style="stroke:rgb(0,0,0);stroke-width:2" />
    <line x1="401" y1="570" x2="471" y2="570" style="stroke:rgb(0,0,0);stroke-width:2" />
    <line x1="471" y1="570" x2="471" y2="560" style="stroke:rgb(0,0,0);stroke-width:2" />
    <line x1="550" y1="520" x2="550" y2="527" style="stroke:rgb(0,0,0);stroke-width:2" />
    <line x1="558" y1="527" x2="570" y2="527" style="stroke:rgb(0,0,0);stroke-width:2" />
    <line x1="580" y1="509" x2="580" y2="560" style="stroke:rgb(0,0,0);stroke-width:2" />
    
    <line x1="540" y1="560" x2="530" y2="538" style="stroke:rgb(0,0,0);stroke-width:2" />
    <line x1="530" y1="538" x2="500" y2="538" style="stroke:rgb(0,0,0);stroke-width:2" />
    <line x1="500" y1="538" x2="471" y2="560" style="stroke:rgb(0,0,0);stroke-width:2" />
    <line x1="580" y1="560" x2="540" y2="560" style="stroke:rgb(0,0,0);stroke-width:2" />
    
    <!-- elevator and stairs-->
    <rect x="410" y="530" width="40" height="24" style="fill:rgb(255,255,255);stroke:rgb(0,0,0);stroke-width:2"/>
    <!--G207-->
    <rect x="570" y="509" width="10" height="18" style="fill:rgb(255,255,255);stroke:rgb(0,0,0);stroke-width:2"/>
    <circle id="G207" cx="571" cy="523" r="0.6" style="fill:rgb(255,255,255);stroke:rgb(255,0,0);stroke-width:3" />
    <!--G206-->
    <rect x="550" y="509" width="20" height="11" style="fill:rgb(255,255,255);stroke:rgb(0,0,0);stroke-width:2"/>
    <circle id="G206" cx="554" cy="516" r="0.6" style="fill:rgb(255,255,255);stroke:rgb(255,0,0);stroke-width:3" />
    <circle id="G206_G207_coridor" cx="554" cy="523" r="0.6" style="fill:rgb(255,255,255);stroke:rgb(255,0,0);stroke-width:3" />

    <!--G205-->
    <rect x="530" y="509" width="20" height="11" style="fill:rgb(255,255,255);stroke:rgb(0,0,0);stroke-width:2"/>
    <circle id="G205" cx="540" cy="516" r="0.6" style="fill:rgb(255,255,255);stroke:rgb(255,0,0);stroke-width:3" />
    <circle id="G205_coridor" cx="540" cy="530" r="0.6" style="fill:rgb(255,255,255);stroke:rgb(255,0,0);stroke-width:3" />


    <circle id="G2_1" cx="554" cy="530" r="0.6" style="fill:rgb(255,255,255);stroke:rgb(255,0,0);stroke-width:3" />
    <circle id="G2_2" cx="455" cy="565" r="0.6" style="fill:rgb(255,255,255);stroke:rgb(255,0,0);stroke-width:3" />
    <circle id="G2_tramp" cx="400" cy="566" r="0.6" style="fill:rgb(255,255,255);stroke:rgb(255,0,0);stroke-width:3" />
    
    <circle id="tramp_center" cx="350" cy="566" r="0.6" style="fill:rgb(255,255,255);stroke:rgb(255,0,0);stroke-width:3" />

    <!--G2_stairs_back-->
    <rect x="570" y="540" width="10" height="20" style="fill:rgb(255,255,255);stroke:rgb(0,0,0);stroke-width:2"/>
    <circle id="G2_stairs_back" cx="571" cy="550" r="0.6" style="fill:rgb(255,255,255);stroke:rgb(255,0,0);stroke-width:3" />

    
    <!--G204-->
    <rect x="485" y="509" width="25" height="11" style="fill:rgb(255,255,255);stroke:rgb(0,0,0);stroke-width:2"/>
    <circle id="G204" cx="490" cy="516" r="0.6" style="fill:rgb(255,255,255);stroke:rgb(255,0,0);stroke-width:3" />
    <circle id="G204_coridor" cx="490" cy="530" r="0.6" style="fill:rgb(255,255,255);stroke:rgb(255,0,0);stroke-width:3" />

    <!--G2_elevator-->
    <rect x="440" y="536" width="10" height="11.5" style="fill:rgb(255,255,255);stroke:rgb(0,0,0);stroke-width:2"/>
    <circle id="G2_elevator_coridor" cx="455" cy="544" r="0.6" style="fill:rgb(255,255,255);stroke:rgb(255,0,0);stroke-width:3" />
    <circle id="G2_elevator" cx="444" cy="544" r="0.6" style="fill:rgb(255,255,255);stroke:rgb(255,0,0);stroke-width:3" />

    <!--G201-->
    <rect x="410" y="509" width="25" height="11" style="fill:rgb(255,255,255);stroke:rgb(0,0,0);stroke-width:2"/>
    <circle id="G201" cx="423" cy="516" r="0.6" style="fill:rgb(255,255,255);stroke:rgb(255,0,0);stroke-width:3" />
    <circle id="G201_coridor" cx="423" cy="525" r="0.6" style="fill:rgb(255,255,255);stroke:rgb(255,0,0);stroke-width:3" />

    <!--G202-->
    <rect x="435" y="509" width="25" height="11" style="fill:rgb(255,255,255);stroke:rgb(0,0,0);stroke-width:2"/>
    <circle id="G202" cx="455" cy="516" r="0.6" style="fill:rgb(255,255,255);stroke:rgb(255,0,0);stroke-width:3" />
    <circle id="G202_coridor" cx="455" cy="525" r="0.6" style="fill:rgb(255,255,255);stroke:rgb(255,0,0);stroke-width:3" />

    <!--G203-->
    <rect x="460" y="509" width="25" height="11" style="fill:rgb(255,255,255);stroke:rgb(0,0,0);stroke-width:2"/>
    <circle id="G203" cx="475" cy="516" r="0.6" style="fill:rgb(255,255,255);stroke:rgb(255,0,0);stroke-width:3" />
    <circle id="G203_Starbucks_coridor" cx="475" cy="530" r="0.6" style="fill:rgb(255,255,255);stroke:rgb(255,0,0);stroke-width:3" />
    
    <!--Starbucks-->
    <polygon points="471 540 497 540 471 560" style="fill:rgb(255,255,255);stroke:rgb(0,0,0);stroke-width:2"/>
    <circle id="Starbucks" cx="475" cy="545" r="0.6" style="fill:rgb(255,255,255);stroke:rgb(255,0,0);stroke-width:3" />

    <circle id="G2_stairs_1" cx="423" cy="535" r="0.6" style="fill:rgb(255,255,255);stroke:rgb(255,0,0);stroke-width:3" />

    <!--G2_FW-->
    <rect x="401" y="550" width="9" height="10" style="fill:rgb(255,255,255);stroke:rgb(0,0,0);stroke-width:2"/>
    <circle id="G2_FW" cx="408" cy="555" r="0.6" style="fill:rgb(255,255,255);stroke:rgb(255,0,0);stroke-width:3" />

    <circle id="G2_stairs_3" cx="420" cy="550" r="0.6" style="fill:rgb(255,255,255);stroke:rgb(255,0,0);stroke-width:3" />
    <circle id="G2_stairs_coridor_3" cx="420" cy="565" r="0.6" style="fill:rgb(255,255,255);stroke:rgb(255,0,0);stroke-width:3" />
    <!--G2_stairs_2-->
    <circle id="G2_stairs_2" cx="435" cy="550" r="0.6" style="fill:rgb(255,255,255);stroke:rgb(255,0,0);stroke-width:3" />
    <circle id="G2_stairs_coridor_2" cx="435" cy="565" r="0.6" style="fill:rgb(255,255,255);stroke:rgb(255,0,0);stroke-width:3" />

    <!--
    
    
    G2 ends
    
    -->

    <!-- 
    
    G3 starts
    
    -->

    <line x1="501" y1="420" x2="670" y2="420" style="stroke:rgb(0,0,0);stroke-width:2" />
    <line x1="501" y1="409" x2="501" y2="470" style="stroke:rgb(0,0,0);stroke-width:2" />
    <line x1="501" y1="470" x2="571" y2="470" style="stroke:rgb(0,0,0);stroke-width:2" />
    <line x1="571" y1="470" x2="571" y2="460" style="stroke:rgb(0,0,0);stroke-width:2" />
    <line x1="650" y1="420" x2="650" y2="427" style="stroke:rgb(0,0,0);stroke-width:2" />
    <line x1="658" y1="427" x2="670" y2="427" style="stroke:rgb(0,0,0);stroke-width:2" />
    <line x1="680" y1="409" x2="680" y2="460" style="stroke:rgb(0,0,0);stroke-width:2" />
    
    <line x1="640" y1="460" x2="630" y2="438" style="stroke:rgb(0,0,0);stroke-width:2" />
    <line x1="630" y1="438" x2="600" y2="438" style="stroke:rgb(0,0,0);stroke-width:2" />
    <line x1="600" y1="438" x2="571" y2="460" style="stroke:rgb(0,0,0);stroke-width:2" />
    <line x1="680" y1="460" x2="640" y2="460" style="stroke:rgb(0,0,0);stroke-width:2" />
    
    <!-- elevator and stairs-->
    <rect x="520" y="430" width="40" height="28" style="fill:rgb(255,255,255);stroke:rgb(0,0,0);stroke-width:2"/>
    <!--G307-->
    <rect x="670" y="409" width="10" height="18" style="fill:rgb(255,255,255);stroke:rgb(0,0,0);stroke-width:2"/>
    <circle id="G307" cx="671" cy="423" r="0.6" style="fill:rgb(255,255,255);stroke:rgb(255,0,0);stroke-width:3" />
    <!--G306-->
    <rect x="650" y="409" width="20" height="11" style="fill:rgb(255,255,255);stroke:rgb(0,0,0);stroke-width:2"/>
    <circle id="G306" cx="654" cy="416" r="0.6" style="fill:rgb(255,255,255);stroke:rgb(255,0,0);stroke-width:3" />
    <circle id="G306_G307_coridor" cx="654" cy="423" r="0.6" style="fill:rgb(255,255,255);stroke:rgb(255,0,0);stroke-width:3" />

    <circle id="G3_1" cx="654" cy="430" r="0.6" style="fill:rgb(255,255,255);stroke:rgb(255,0,0);stroke-width:3" />
    <circle id="G3_2" cx="654" cy="440" r="0.6" style="fill:rgb(255,255,255);stroke:rgb(255,0,0);stroke-width:3" />
    <circle id="G3_3" cx="563" cy="465" r="0.6" style="fill:rgb(255,255,255);stroke:rgb(255,0,0);stroke-width:3" />
    
    <!--G3_stairs_back-->
    <rect x="670" y="440" width="10" height="20" style="fill:rgb(255,255,255);stroke:rgb(0,0,0);stroke-width:2"/>
    <circle id="G3_stairs_back" cx="675" cy="450" r="0.6" style="fill:rgb(255,255,255);stroke:rgb(255,0,0);stroke-width:3" />

    
    <!--G304-->
    <rect x="571" y="409" width="25" height="11" style="fill:rgb(255,255,255);stroke:rgb(0,0,0);stroke-width:2"/>
    <circle id="G304" cx="590" cy="416" r="0.6" style="fill:rgb(255,255,255);stroke:rgb(255,0,0);stroke-width:3" />
    <circle id="G304_coridor" cx="590" cy="425" r="0.6" style="fill:rgb(255,255,255);stroke:rgb(255,0,0);stroke-width:3" />

    <!--G3_elevator-->
    <rect x="550" y="436" width="10" height="17" style="fill:rgb(255,255,255);stroke:rgb(0,0,0);stroke-width:2"/>
    <circle id="G3_elevator" cx="555" cy="445.5" r="0.6" style="fill:rgb(255,255,255);stroke:rgb(255,0,0);stroke-width:3" />
    <circle id="G3_elevator_coridor" cx="563" cy="445.5" r="0.6" style="fill:rgb(255,255,255);stroke:rgb(255,0,0);stroke-width:3" />

    <!--G301-->
    <rect x="501" y="409" width="20" height="11" style="fill:rgb(255,255,255);stroke:rgb(0,0,0);stroke-width:2"/>
    <circle id="G301" cx="506" cy="416" r="0.6" style="fill:rgb(255,255,255);stroke:rgb(255,0,0);stroke-width:3" />
    <circle id="G301_coridor" cx="506" cy="425" r="0.6" style="fill:rgb(255,255,255);stroke:rgb(255,0,0);stroke-width:3" />

    <!--G302-->
    <rect x="521" y="409" width="25" height="11" style="fill:rgb(255,255,255);stroke:rgb(0,0,0);stroke-width:2"/>
    <circle id="G302" cx="540" cy="416" r="0.6" style="fill:rgb(255,255,255);stroke:rgb(255,0,0);stroke-width:3" />
    <circle id="G302_coridor" cx="540" cy="425" r="0.6" style="fill:rgb(255,255,255);stroke:rgb(255,0,0);stroke-width:3" />

    <!--G303-->
    <rect x="546" y="409" width="25" height="11" style="fill:rgb(255,255,255);stroke:rgb(0,0,0);stroke-width:2"/>
    <circle id="G303" cx="563" cy="416" r="0.6" style="fill:rgb(255,255,255);stroke:rgb(255,0,0);stroke-width:3" />
    <circle id="G303_coridor" cx="563" cy="425" r="0.6" style="fill:rgb(255,255,255);stroke:rgb(255,0,0);stroke-width:3" />



    <circle id="G3_stairs_coridor_1" cx="530" cy="425" r="0.6" style="fill:rgb(255,255,255);stroke:rgb(255,0,0);stroke-width:3" />
    <circle id="G3_stairs_1" cx="530" cy="435" r="0.6" style="fill:rgb(255,255,255);stroke:rgb(255,0,0);stroke-width:3" />

    <!--G3_MW-->
    <rect x="501" y="430" width="10" height="20" style="fill:rgb(255,255,255);stroke:rgb(0,0,0);stroke-width:2"/>
    <circle id="G3_MW" cx="509" cy="445" r="0.6" style="fill:rgb(255,255,255);stroke:rgb(255,0,0);stroke-width:3" />
    <circle id="G3_stairs_coridor_3" cx="515.5" cy="445" r="0.6" style="fill:rgb(255,255,255);stroke:rgb(255,0,0);stroke-width:3" />

    <!--G312-->
    <rect x="511" y="430" width="9" height="10" style="fill:rgb(255,255,255);stroke:rgb(0,0,0);stroke-width:2"/>
    <circle id="G312" cx="515.5" cy="435" r="0.6" style="fill:rgb(255,255,255);stroke:rgb(255,0,0);stroke-width:3" />

    <circle id="G3_stairs_3" cx="524" cy="445" r="0.6" style="fill:rgb(255,255,255);stroke:rgb(255,0,0);stroke-width:3" />
    <circle id="G3_4" cx="515.5" cy="465" r="0.6" style="fill:rgb(255,255,255);stroke:rgb(255,0,0);stroke-width:3" />
    <!--G3_stairs_2-->
    <circle id="G3_stairs_2" cx="545" cy="455" r="0.6" style="fill:rgb(255,255,255);stroke:rgb(255,0,0);stroke-width:3" />
    <circle id="G3_stairs_coridor_2" cx="545" cy="465" r="0.6" style="fill:rgb(255,255,255);stroke:rgb(255,0,0);stroke-width:3" />

    <!--
    
    G3 ended
    
    -->

    <!-- 
    
    G4 starts

    -->

    <line x1="601" y1="320" x2="770" y2="320" style="stroke:rgb(0,0,0);stroke-width:2" />
    <line x1="601" y1="309" x2="601" y2="370" style="stroke:rgb(0,0,0);stroke-width:2" />
    <line x1="601" y1="370" x2="671" y2="370" style="stroke:rgb(0,0,0);stroke-width:2" />
    <line x1="671" y1="370" x2="671" y2="360" style="stroke:rgb(0,0,0);stroke-width:2" />
    <line x1="750" y1="320" x2="750" y2="327" style="stroke:rgb(0,0,0);stroke-width:2" />
    <line x1="758" y1="327" x2="770" y2="327" style="stroke:rgb(0,0,0);stroke-width:2" />
    <line x1="780" y1="309" x2="780" y2="360" style="stroke:rgb(0,0,0);stroke-width:2" />
    
    <line x1="740" y1="360" x2="730" y2="334" style="stroke:rgb(0,0,0);stroke-width:2" />
    <line x1="730" y1="334" x2="700" y2="334" style="stroke:rgb(0,0,0);stroke-width:2" />
    <line x1="700" y1="334" x2="671" y2="360" style="stroke:rgb(0,0,0);stroke-width:2" />
    <line x1="780" y1="360" x2="740" y2="360" style="stroke:rgb(0,0,0);stroke-width:2" />
    
    <!-- elevator and stairs-->
    <rect x="620" y="330" width="40" height="28" style="fill:rgb(255,255,255);stroke:rgb(0,0,0);stroke-width:2"/>
    <!--G407-->
    <rect x="770" y="309" width="10" height="18" style="fill:rgb(255,255,255);stroke:rgb(0,0,0);stroke-width:2"/>
    <circle id="G407" cx="771" cy="323" r="0.6" style="fill:rgb(255,255,255);stroke:rgb(255,0,0);stroke-width:3" />
    <!--G406-->
    <rect x="750" y="309" width="20" height="11" style="fill:rgb(255,255,255);stroke:rgb(0,0,0);stroke-width:2"/>
    <circle id="G406" cx="754" cy="316" r="0.6" style="fill:rgb(255,255,255);stroke:rgb(255,0,0);stroke-width:3" />
    <circle id="G406_G407_coridor" cx="754" cy="323" r="0.6" style="fill:rgb(255,255,255);stroke:rgb(255,0,0);stroke-width:3" />

    <circle id="G4_1" cx="754" cy="330" r="0.6" style="fill:rgb(255,255,255);stroke:rgb(255,0,0);stroke-width:3" />
    <circle id="G4_2" cx="754" cy="340" r="0.6" style="fill:rgb(255,255,255);stroke:rgb(255,0,0);stroke-width:3" />
    <circle id="G4_3" cx="740" cy="340" r="0.6" style="fill:rgb(255,255,255);stroke:rgb(255,0,0);stroke-width:3" />
    <circle id="G4_4" cx="663" cy="325" r="0.6" style="fill:rgb(255,255,255);stroke:rgb(255,0,0);stroke-width:3" />
    <circle id="G4_5" cx="663" cy="365" r="0.6" style="fill:rgb(255,255,255);stroke:rgb(255,0,0);stroke-width:3" />
    
    <!--G4_stairs_back-->
    <rect x="770" y="340" width="10" height="20" style="fill:rgb(255,255,255);stroke:rgb(0,0,0);stroke-width:2"/>
    <circle id="G4_stairs_back" cx="775" cy="350" r="0.6" style="fill:rgb(255,255,255);stroke:rgb(255,0,0);stroke-width:3" />

    <!--G404-->
    <rect x="730" y="309" width="20" height="11" style="fill:rgb(255,255,255);stroke:rgb(0,0,0);stroke-width:2"/>
    <circle id="G404" cx="740" cy="316" r="0.6" style="fill:rgb(255,255,255);stroke:rgb(255,0,0);stroke-width:3" />
    <circle id="G404_coridor" cx="740" cy="330" r="0.6" style="fill:rgb(255,255,255);stroke:rgb(255,0,0);stroke-width:3" />

    <!--G402-->
    <rect x="680" y="309" width="20" height="11" style="fill:rgb(255,255,255);stroke:rgb(0,0,0);stroke-width:2"/>
    <circle id="G402" cx="690" cy="316" r="0.6" style="fill:rgb(255,255,255);stroke:rgb(255,0,0);stroke-width:3" />
    <circle id="G402_coridor" cx="690" cy="330" r="0.6" style="fill:rgb(255,255,255);stroke:rgb(255,0,0);stroke-width:3" />

    <!--G4_elevator-->
    <rect x="650" y="336" width="10" height="17" style="fill:rgb(255,255,255);stroke:rgb(0,0,0);stroke-width:2"/>
    <circle id="G4_elevator" cx="655" cy="344.5" r="0.6" style="fill:rgb(255,255,255);stroke:rgb(255,0,0);stroke-width:3" />
    <circle id="G4_elevator_coridor" cx="663" cy="344.5" r="0.6" style="fill:rgb(255,255,255);stroke:rgb(255,0,0);stroke-width:3" />

    <!--G401-->
    <rect x="601" y="309" width="20" height="11" style="fill:rgb(255,255,255);stroke:rgb(0,0,0);stroke-width:2"/>
    <circle id="G401" cx="606" cy="316" r="0.6" style="fill:rgb(255,255,255);stroke:rgb(255,0,0);stroke-width:3" />
    <circle id="G401_coridor" cx="606" cy="325" r="0.6" style="fill:rgb(255,255,255);stroke:rgb(255,0,0);stroke-width:3" />

    <circle id="G4_stairs_coridor_1" cx="630" cy="325" r="0.6" style="fill:rgb(255,255,255);stroke:rgb(255,0,0);stroke-width:3" />
    <circle id="G4_stairs_1" cx="630" cy="335" r="0.6" style="fill:rgb(255,255,255);stroke:rgb(255,0,0);stroke-width:3" />

    <!--G4_FW-->
    <rect x="601" y="330" width="10" height="20" style="fill:rgb(255,255,255);stroke:rgb(0,0,0);stroke-width:2"/>
    <circle id="G4_FW" cx="609" cy="345" r="0.6" style="fill:rgb(255,255,255);stroke:rgb(255,0,0);stroke-width:3" />
    <circle id="G4_stairs_coridor_3" cx="615.5" cy="345" r="0.6" style="fill:rgb(255,255,255);stroke:rgb(255,0,0);stroke-width:3" />

    <!--G412-->
    <rect x="611" y="330" width="9" height="10" style="fill:rgb(255,255,255);stroke:rgb(0,0,0);stroke-width:2"/>
    <circle id="G412" cx="615.5" cy="335" r="0.6" style="fill:rgb(255,255,255);stroke:rgb(255,0,0);stroke-width:3" />

    <circle id="G4_stairs_3" cx="624" cy="345" r="0.6" style="fill:rgb(255,255,255);stroke:rgb(255,0,0);stroke-width:3" />
    <circle id="G4_6" cx="615.5" cy="365" r="0.6" style="fill:rgb(255,255,255);stroke:rgb(255,0,0);stroke-width:3" />
    <!--G4_stairs_2-->
    <circle id="G4_stairs_2" cx="645" cy="355" r="0.6" style="fill:rgb(255,255,255);stroke:rgb(255,0,0);stroke-width:3" />
    <circle id="G4_stairs_coridor_2" cx="645" cy="365" r="0.6" style="fill:rgb(255,255,255);stroke:rgb(255,0,0);stroke-width:3" />
    <!--
    
    G4 ends

    -->

    <!-- 
    
    E2 starts

    -->
    <!-- borders started-->
  <line y1="400" x1="270" y2="480" x2="270" style="stroke:rgb(0,0,0);stroke-width:2" />
  <line y1="400" x1="280" y2="410" x2="280" style="stroke:rgb(0,0,0);stroke-width:2" />
  <line y1="410" x1="280" y2="416" x2="320" style="stroke:rgb(0,0,0);stroke-width:2" />
  <!-- lower block started -->
  <line y1="480" x1="260" y2="480" x2="270" style="stroke:rgb(0,0,0);stroke-width:2" />
  <line y1="480" x1="260" y2="500" x2="260" style="stroke:rgb(0,0,0);stroke-width:2" />
  <line y1="500" x1="260" y2="500" x2="275" style="stroke:rgb(0,0,0);stroke-width:2" />
  <!-- lower block finished -->
  <!-- tramp lines start-->
  <line y1="540" x1="310" y2="500" x2="280" style="stroke:rgb(0,0,0);stroke-width:2" />
  <line y1="540" x1="305" y2="500" x2="275" style="stroke:rgb(0,0,0);stroke-width:2" />
  <!-- tramp lines finished -->
  <line y1="470" x1="280" y2="500" x2="280" style="stroke:rgb(0,0,0);stroke-width:2" />
  <line y1="470" x1="280" y2="470" x2="380" style="stroke:rgb(0,0,0);stroke-width:2" />
  <line y1="470" x1="380" y2="460" x2="380" style="stroke:rgb(0,0,0);stroke-width:2" />
  <line y1="460" x1="380" y2="460" x2="320" style="stroke:rgb(0,0,0);stroke-width:2" />
  <line y1="416" x1="320" y2="460" x2="320" style="stroke:rgb(0,0,0);stroke-width:2" />


  <rect y="420" x="280" height="40" width="30" style="fill:rgb(255,255,255);stroke:rgb(0,0,0);stroke-width:2"/>
  <!-- borders finished-->
  <!-- structure started -->
  <!-- E209 -->
  <rect y="480" x="280" height="10" width="5" style="fill:rgb(255,255,255);stroke:rgb(0,0,0);stroke-width:2"/>
  <circle id="E209" cy="485" cx="282.5" r="0.6" style="fill:rgb(255,255,255);stroke:rgb(255,0,0);stroke-width:3" />
  <circle id="E209_corridor" cy="485" cx="276" r="0.6" style="fill:rgb(255,255,255);stroke:rgb(255,0,0);stroke-width:3" />
  <!-- E209 ended -->
  <!-- E2 stairs 1 -->
  <rect y="470" x="263" height="10" width="7" style="fill:rgb(255,255,255);stroke:rgb(0,0,0);stroke-width:2"/>
  <circle id="E2_stairs_1" cy="475" cx="266.5" r="0.6" style="fill:rgb(255,255,255);stroke:rgb(255,0,0);stroke-width:3" />
  <circle id="E2_stairs_corridor_1" cy="485" cx="266.5" r="0.6" style="fill:rgb(255,255,255);stroke:rgb(255,0,0);stroke-width:3" />
  <circle id="E2_7" cy="485" cx="266.5" r="0.6" style="fill:rgb(255,255,255);stroke:rgb(255,0,0);stroke-width:3" />
  <!-- E209 ended -->

  <!-- E2 elevator -->
  <rect y="490" x="260" height="10" width="7" style="fill:rgb(255,255,255);stroke:rgb(0,0,0);stroke-width:2"/>
  <circle id="E2_elevator" cy="495" cx="263.5" r="0.6" style="fill:rgb(255,255,255);stroke:rgb(255,0,0);stroke-width:3" />
  <circle id="E2_elevator_corridor" cy="485" cx="276" r="0.6" style="fill:rgb(255,255,255);stroke:rgb(255,0,0);stroke-width:3" />
  <!-- E2 elevator ended -->
  <circle id="E2_1" cy="465" cx="276" r="0.6" style="fill:rgb(255,255,255);stroke:rgb(255,0,0);stroke-width:3" />
  <!-- E210 AND E207G started -->
  <rect y="450" x="290" height="10" width="7" style="fill:rgb(255,255,255);stroke:rgb(0,0,0);stroke-width:2"/>
  <rect y="470" x="290" height="10" width="7" style="fill:rgb(255,255,255);stroke:rgb(0,0,0);stroke-width:2"/>
  <circle id="E207G_E210_corridor" cy="465" cx="293.5" r="0.6" style="fill:rgb(255,255,255);stroke:rgb(255,0,0);stroke-width:3" />
  <circle id="E210" cy="455" cx="293.5" r="0.6" style="fill:rgb(255,255,255);stroke:rgb(255,0,0);stroke-width:3" />
  <circle id="E207G" cy="475" cx="293.5" r="0.6" style="fill:rgb(255,255,255);stroke:rgb(255,0,0);stroke-width:3" />
  <!-- E210 AND E207G ended -->



  <circle id="E2_2" cy="465" cx="315" r="0.6" style="fill:rgb(255,255,255);stroke:rgb(255,0,0);stroke-width:3" />
  <circle id="E2_3" cy="465" cx="325" r="0.6" style="fill:rgb(255,255,255);stroke:rgb(255,0,0);stroke-width:3" />
  <!-- E207B/D/F started -->
  <rect y="470" x="320" height="20" width="12" style="fill:rgb(255,255,255);stroke:rgb(0,0,0);stroke-width:2"/>
  <circle id="E2_8" cy="472" cx="326" r="0.6" style="fill:rgb(255,255,255);stroke:rgb(255,0,0);stroke-width:3" />
  <circle id="E207F" cy="488" cx="319" r="0.6" style="fill:rgb(255,255,255);stroke:rgb(255,0,0);stroke-width:3" />
  <circle id="E207D" cy="492" cx="330" r="0.6" style="fill:rgb(255,255,255);stroke:rgb(255,0,0);stroke-width:3" />
  <circle id="E207B" cy="488" cx="334" r="0.6" style="fill:rgb(255,255,255);stroke:rgb(255,0,0);stroke-width:3" />
  <!-- E207B/D/F ended -->
  <!-- E203 started  -->
  <rect y="450" x="340" height="10" width="5" style="fill:rgb(255,255,255);stroke:rgb(0,0,0);stroke-width:2"/>
  <circle id="E203_corridor" cy="465" cx="342.5" r="0.6" style="fill:rgb(255,255,255);stroke:rgb(255,0,0);stroke-width:3" />
  <circle id="E203" cy="455" cx="342.5" r="0.6" style="fill:rgb(255,255,255);stroke:rgb(255,0,0);stroke-width:3" />
  <!-- E203 ended -->



  <!-- E207C started  -->
  <rect y="470" x="356" height="10" width="5" style="fill:rgb(255,255,255);stroke:rgb(0,0,0);stroke-width:2"/>
  <circle id="E207C_corridor" cy="465" cx="356.5" r="0.6" style="fill:rgb(255,255,255);stroke:rgb(255,0,0);stroke-width:3" />
  <circle id="E207C" cy="475" cx="356.5" r="0.6" style="fill:rgb(255,255,255);stroke:rgb(255,0,0);stroke-width:3" />
  <!-- E207C ended -->
  <!-- E205 AND E206 started  -->
  <rect y="450" x="364" height="10" width="5" style="fill:rgb(255,255,255);stroke:rgb(0,0,0);stroke-width:2"/>
  <rect y="470" x="364" height="10" width="5" style="fill:rgb(255,255,255);stroke:rgb(0,0,0);stroke-width:2"/>
  <circle id="E205_E206_corridor" cy="465" cx="366.5" r="0.6" style="fill:rgb(255,255,255);stroke:rgb(255,0,0);stroke-width:3" />
  <circle id="E205" cy="455" cx="366.5" r="0.6" style="fill:rgb(255,255,255);stroke:rgb(255,0,0);stroke-width:3" />
  <circle id="E206" cy="477" cx="366.5" r="0.6" style="fill:rgb(255,255,255);stroke:rgb(255,0,0);stroke-width:3" />
  <!-- E205 AND E206 ended -->
  <!-- E2_stairs_2 started  -->
  <rect y="470" x="375" height="10" width="5" style="fill:rgb(255,255,255);stroke:rgb(0,0,0);stroke-width:2"/>
  <circle id="E2_stairs_corridor_2" cy="465" cx="377.5" r="0.6" style="fill:rgb(255,255,255);stroke:rgb(255,0,0);stroke-width:3" />
  <circle id="E2_stairs_2" cy="475" cx="377.5" r="0.6" style="fill:rgb(255,255,255);stroke:rgb(255,0,0);stroke-width:3" />
  <!-- E2_stairs_2 ended -->


  <!-- E202 AND E212 started  -->
  <rect y="450" x="320" height="10" width="5" style="fill:rgb(255,255,255);stroke:rgb(0,0,0);stroke-width:2"/>
  <rect y="450" x="305" height="10" width="5" style="fill:rgb(255,255,255);stroke:rgb(0,0,0);stroke-width:2"/>
  <circle id="E202_E212_corridor" cy="455" cx="315" r="0.6" style="fill:rgb(255,255,255);stroke:rgb(255,0,0);stroke-width:3" />
  <circle id="E202" cy="455" cx="322.5" r="0.6" style="fill:rgb(255,255,255);stroke:rgb(255,0,0);stroke-width:3" />
  <circle id="E212" cy="455" cx="307.5" r="0.6" style="fill:rgb(255,255,255);stroke:rgb(255,0,0);stroke-width:3" />
  <!-- E202 AND E212 ended -->
  <!-- E2_FW started  -->
  <rect y="440" x="305" height="10" width="5" style="fill:rgb(255,255,255);stroke:rgb(0,0,0);stroke-width:2"/>
  <circle id="E2_FW_corridor" cy="445" cx="315" r="0.6" style="fill:rgb(255,255,255);stroke:rgb(255,0,0);stroke-width:3" />
  <circle id="E2_FW" cy="445" cx="307.5" r="0.6" style="fill:rgb(255,255,255);stroke:rgb(255,0,0);stroke-width:3" />
  <!-- E2_FW ended -->
  <!-- E2_stairs_3 started  -->
  <rect y="430" x="320" height="10" width="11" style="fill:rgb(255,255,255);stroke:rgb(0,0,0);stroke-width:2"/>
  <circle id="E2_stairs_corridor_3" cy="435" cx="315" r="0.6" style="fill:rgb(255,255,255);stroke:rgb(255,0,0);stroke-width:3" />
  <circle id="E2_stairs_3" cy="435" cx="322.5" r="0.6" style="fill:rgb(255,255,255);stroke:rgb(255,0,0);stroke-width:3" />
  <!-- E2_stairs_3 ended -->
  <!-- E2_MW started  -->
  <rect y="420" x="305" height="10" width="5" style="fill:rgb(255,255,255);stroke:rgb(0,0,0);stroke-width:2"/>
  <circle id="E2_4" cy="418" cx="315" r="0.6" style="fill:rgb(255,255,255);stroke:rgb(255,0,0);stroke-width:3" />
  <circle id="E2_MW" cy="425" cx="307.5" r="0.6" style="fill:rgb(255,255,255);stroke:rgb(255,0,0);stroke-width:3" />
  <!-- E2_MW ended -->
  <!-- E200 started  -->
  <rect y="420" x="280" height="26" width="5" style="fill:rgb(255,255,255);stroke:rgb(0,0,0);stroke-width:2"/>
  <circle id="E200_corridor_1" cy="418" cx="282.5" r="0.6" style="fill:rgb(255,255,255);stroke:rgb(255,0,0);stroke-width:3" />
  <circle id="E200" cy="422" cx="282.5" r="0.6" style="fill:rgb(255,255,255);stroke:rgb(255,0,0);stroke-width:3" />
  <circle id="E200_corridor_2" cy="440" cx="275" r="0.6" style="fill:rgb(255,255,255);stroke:rgb(255,0,0);stroke-width:3" />
  <!-- E200 ended -->
  <circle id="E2_5" cy="418" cx="275" r="0.6" style="fill:rgb(255,255,255);stroke:rgb(255,0,0);stroke-width:3" />
  <circle id="E2_6" cy="404" cx="275" r="0.6" style="fill:rgb(255,255,255);stroke:rgb(255,0,0);stroke-width:3" />
  <circle id="E2_tramp" cy="498" cx="275" r="0.6" style="fill:rgb(255,255,255);stroke:rgb(255,0,0);stroke-width:3" />
  
  <!-- structure finished -->    
    <!-- 
    
    E2 ends
    
    -->
   <!--
   
   E1 starts
   
   -->
   
    <line y1="400" x1="20" y2="540" x2="20" style="stroke:rgb(0,0,0);stroke-width:2"/>
    <line y1="540" x1="20" y2="540" x2="0" style="stroke:rgb(0,0,0);stroke-width:2"/>
    <line y1="560" x1="20" y2="560" x2="0" style="stroke:rgb(0,0,0);stroke-width:2"/>
    <line y1="560" x1="20" y2="580" x2="20" style="stroke:rgb(0,0,0);stroke-width:2"/>
    <line y1="580" x1="20" y2="580" x2="40" style="stroke:rgb(0,0,0);stroke-width:2"/>
    <line y1="580" x1="40" y2="520" x2="40" style="stroke:rgb(0,0,0);stroke-width:2"/>
    <line y1="520" x1="40" y2="520" x2="180" style="stroke:rgb(0,0,0);stroke-width:2"/>
    <line y1="400" x1="40" y2="420" x2="40" style="stroke:rgb(0,0,0);stroke-width:2"/>
    <line y1="420" x1="40" y2="420" x2="100" style="stroke:rgb(0,0,0);stroke-width:2"/>
    <line y1="420" x1="100" y2="490" x2="100" style="stroke:rgb(0,0,0);stroke-width:2"/>
    <line y1="490" x1="100" y2="490" x2="180" style="stroke:rgb(0,0,0);stroke-width:2"/>
    <line y1="490" x1="180" y2="520" x2="180" style="stroke:rgb(0,0,0);stroke-width:2"/>


    
    <rect y="430" x="40" height="60" width="40" style="fill:rgb(255,255,255);stroke:rgb(0,0,0);stroke-width:2"/>

    <circle id="E1_tramp" cy="550" cx="4"  r="0.6" style="fill:rgb(255,255,255);stroke:rgb(255,0,0);stroke-width:3" />
    <circle id="E1_exit" cy="579" cx="30"  r="0.6" style="fill:rgb(255,255,255);stroke:rgb(255,0,0);stroke-width:3" />
    <!-- stairs 1 -->
    <rect y="524" x="10" height="16" width="10" style="fill:rgb(255,255,255);stroke:rgb(0,0,0);stroke-width:2"/>
    <circle id="E1_stairs_1" cy="532" cx="15"  r="0.6" style="fill:rgb(255,255,255);stroke:rgb(255,0,0);stroke-width:3" />
    <circle id="E1_stairs_corridor_1" cy="550" cx="15"  r="0.6" style="fill:rgb(255,255,255);stroke:rgb(255,0,0);stroke-width:3" />
    <!-- end stairs 1-->
    <!-- elevator -->
    <rect y="560" x="10" height="16" width="10" style="fill:rgb(255,255,255);stroke:rgb(0,0,0);stroke-width:2"/>
    <circle id="E1_elevator" cy="568" cx="15"  r="0.6" style="fill:rgb(255,255,255);stroke:rgb(255,0,0);stroke-width:3" />
    <circle id="E1_elevator_corridor" cy="568" cx="30"  r="0.6" style="fill:rgb(255,255,255);stroke:rgb(255,0,0);stroke-width:3" />
    <!-- end elevator-->


    <!-- E111B -->
    <rect y="530" x="40" height="16" width="10" style="fill:rgb(255,255,255);stroke:rgb(0,0,0);stroke-width:2"/>
    <circle id="E111B" cy="538" cx="45"  r="0.6" style="fill:rgb(255,255,255);stroke:rgb(255,0,0);stroke-width:3" />
    <circle id="E111B_corridor" cy="538" cx="30"  r="0.6" style="fill:rgb(255,255,255);stroke:rgb(255,0,0);stroke-width:3" />
    <!-- end E111B-->
    <!-- stairs 2 -->
    <rect y="520" x="164" height="10" width="16" style="fill:rgb(255,255,255);stroke:rgb(0,0,0);stroke-width:2"/>
    <circle id="E1_stairs_2" cy="525" cx="172"  r="0.6" style="fill:rgb(255,255,255);stroke:rgb(255,0,0);stroke-width:3" />
    <circle id="E105_corridor" cy="505" cx="172"  r="0.6" style="fill:rgb(255,255,255);stroke:rgb(255,0,0);stroke-width:3" />
    <!-- end stairs 2-->
    <!-- E105 -->
    <rect y="480" x="164" height="10" width="16" style="fill:rgb(255,255,255);stroke:rgb(0,0,0);stroke-width:2"/>
    <circle id="E105" cy="485" cx="172"  r="0.6" style="fill:rgb(255,255,255);stroke:rgb(255,0,0);stroke-width:3" />
    <!-- end E105-->
    <!-- E104 -->
    <rect x="148" y="480" height="10" width="16" style="fill:rgb(255,255,255);stroke:rgb(0,0,0);stroke-width:2"/>
    <circle id="E104" cy="485" cx="156"  r="0.6" style="fill:rgb(255,255,255);stroke:rgb(255,0,0);stroke-width:3" />
    <circle id="E104_E106_corridor" cy="505" cx="156"  r="0.6" style="fill:rgb(255,255,255);stroke:rgb(255,0,0);stroke-width:3" />
    <!-- end E104-->
    

    <!-- E106 -->
    <rect y="520" x="148" height="10" width="16" style="fill:rgb(255,255,255);stroke:rgb(0,0,0);stroke-width:2"/>
    <circle id="E106" cy="525" cx="156"  r="0.6" style="fill:rgb(255,255,255);stroke:rgb(255,0,0);stroke-width:3" />
    <!-- end E106-->
    <!-- E108 -->
    <rect y="520" x="116" height="10" width="32" style="fill:rgb(255,255,255);stroke:rgb(0,0,0);stroke-width:2"/>
    <circle id="E108" cy="525" cx="132"  r="0.6" style="fill:rgb(255,255,255);stroke:rgb(255,0,0);stroke-width:3" />
    <circle id="E108_corridor" cy="505" cx="132"  r="0.6" style="fill:rgb(255,255,255);stroke:rgb(255,0,0);stroke-width:3" />
    <!-- end E108-->
    <!-- E103 -->
    <rect y="480" x="132" height="10" width="16" style="fill:rgb(255,255,255);stroke:rgb(0,0,0);stroke-width:2"/>
    <circle id="E103" cy="485" cx="140"  r="0.6" style="fill:rgb(255,255,255);stroke:rgb(255,0,0);stroke-width:3" />
    <circle id="E103_corridor" cy="505" cx="140"  r="0.6" style="fill:rgb(255,255,255);stroke:rgb(255,0,0);stroke-width:3" />
    <!-- end E103-->
    <circle id="E1_2" cy="505" cx="90"  r="0.6" style="fill:rgb(255,255,255);stroke:rgb(255,0,0);stroke-width:3" />
    <circle id="E1_1" cy="505" cx="30"  r="0.6" style="fill:rgb(255,255,255);stroke:rgb(255,0,0);stroke-width:3" />
    <!-- E102 -->
    <rect y="470" x="100" height="16" width="10" style="fill:rgb(255,255,255);stroke:rgb(0,0,0);stroke-width:2"/>
    <circle id="E102" cy="478" cx="105"  r="0.6" style="fill:rgb(255,255,255);stroke:rgb(255,0,0);stroke-width:3" />
    <circle id="E102_E101E_corridor" cy="478" cx="90"  r="0.6" style="fill:rgb(255,255,255);stroke:rgb(255,0,0);stroke-width:3" />
    <!-- end E102-->
    



    <!-- E101E -->
    <rect y="476" x="70" height="8" width="10" style="fill:rgb(255,255,255);stroke:rgb(0,0,0);stroke-width:2"/>
    <circle id="E101E" cy="480" cx="75"  r="0.6" style="fill:rgb(255,255,255);stroke:rgb(255,0,0);stroke-width:3" />
    <!-- end E101E-->
    <!-- E101C -->
    <rect y="468" x="70" height="8" width="10" style="fill:rgb(255,255,255);stroke:rgb(0,0,0);stroke-width:2"/>
    <circle id="E101C" cy="472" cx="75"  r="0.6" style="fill:rgb(255,255,255);stroke:rgb(255,0,0);stroke-width:3" />
    <circle id="E101C_corridor" cy="472" cx="90"  r="0.6" style="fill:rgb(255,255,255);stroke:rgb(255,0,0);stroke-width:3" />
    <!-- end E101C-->
    <!-- E113 -->
    <rect y="460" x="70" height="8" width="10" style="fill:rgb(255,255,255);stroke:rgb(0,0,0);stroke-width:2"/>
    <circle id="E113" cy="464" cx="75"  r="0.6" style="fill:rgb(255,255,255);stroke:rgb(255,0,0);stroke-width:3" />
    <circle id="E113_corridor" cy="464" cx="90"  r="0.6" style="fill:rgb(255,255,255);stroke:rgb(255,0,0);stroke-width:3" />
    <!-- end E113-->
    <!-- E1 stairs 3 -->
    <rect y="444" x="100" height="16" width="10" style="fill:rgb(255,255,255);stroke:rgb(0,0,0);stroke-width:2"/>
    <circle id="E1_stairs_3" cy="452" cx="105"  r="0.6" style="fill:rgb(255,255,255);stroke:rgb(255,0,0);stroke-width:3" />
    <circle id="E1_stairs_corridor_3" cy="452" cx="90"  r="0.6" style="fill:rgb(255,255,255);stroke:rgb(255,0,0);stroke-width:3" />
    <!-- end E1 stairs 3-->
    <!-- E100-->
    <rect y="436" x="70" height="16" width="10" style="fill:rgb(255,255,255);stroke:rgb(0,0,0);stroke-width:2"/>
    <circle id="E100" cy="444" cx="75"  r="0.6" style="fill:rgb(255,255,255);stroke:rgb(255,0,0);stroke-width:3" />
    <circle id="E100_corridor" cy="444" cx="90"  r="0.6" style="fill:rgb(255,255,255);stroke:rgb(255,0,0);stroke-width:3" />
    <!-- end E100-->
    <circle id="E1_3" cy="425" cx="90"  r="0.6" style="fill:rgb(255,255,255);stroke:rgb(255,0,0);stroke-width:3" />
    <circle id="E1_4" cy="425" cx="30"  r="0.6" style="fill:rgb(255,255,255);stroke:rgb(255,0,0);stroke-width:3" />
    <circle id="E1_5" cy="402" cx="30"  r="0.6" style="fill:rgb(255,255,255);stroke:rgb(255,0,0);stroke-width:3" />
    <!-- E101-->
    <rect y="450" x="40" height="16" width="10" style="fill:rgb(255,255,255);stroke:rgb(0,0,0);stroke-width:2"/>
    <circle id="E101" cy="458" cx="45"  r="0.6" style="fill:rgb(255,255,255);stroke:rgb(255,0,0);stroke-width:3" />
    <circle id="E101_corridor" cy="458" cx="30"  r="0.6" style="fill:rgb(255,255,255);stroke:rgb(255,0,0);stroke-width:3" />
    <!-- end E101-->
    <!-- E101D-->
    <rect y="480" x="50" height="10" width="16" style="fill:rgb(255,255,255);stroke:rgb(0,0,0);stroke-width:2"/>
    <circle id="E101" cy="485" cx="58"  r="0.6" style="fill:rgb(255,255,255);stroke:rgb(255,0,0);stroke-width:3" />
    <circle id="E101D_corridor" cy="505" cx="58"  r="0.6" style="fill:rgb(255,255,255);stroke:rgb(255,0,0);stroke-width:3" />
    <!-- end E101D-->

   <!-- 
   
   E1 ends
   
   -->
</svg>